[
    {
        "@namespace": "ExampleRepo",
        "@classInternalName": "PerennialOrder",
        "OrderNr": 11111,
        "OrderDate": null,
        "Accounts": [],
        "Items": []
    },
        {
        "@namespace": "ExampleRepo",
        "@classInternalName": "PerennialOrder",
        "OrderNr": 2222,
        "OrderDate": null,
        "Accounts": [],
        "Items": []
    },
     {
       "@namespace": "ExampleRepo",
       "@classInternalName": "PerennialOrder",
        "OrderNr": 3333,
        "OrderDate": null,
         "Accounts": [
             {
               "@namespace": "ExampleRepo",
               "@classInternalName": "BankAccount",
               "IBAN": "DE12kkalsdkalsk", "BIC" : "GNODEF001" , "Bank" :  "Raiba Ulm",
               "Order": null
             },
             {
               "@namespace": "ExampleRepo",
               "@classInternalName": "BankAccount",
               "IBAN": "36345wtw3423", "BIC" : "GNODEF002" , "Bank" :  "Raiba Krumbach",
               "Order": null
             }
         ],
        "Items": [
          {
            "@namespace": "ExampleRepo",
            "@classInternalName": "PerennialOrderItem",
            "ItemNr": 1, "ItemCount" : 5 , "Price" :  343.88, "Plant": null,
            "Order": null
          }
        ]
     }
]
